<?xml version="1.0" standalone="no"?>
<!DOCTYPE svg PUBLIC "-//W3C//DTD SVG 1.1//EN" "http://www.w3.org/Graphics/SVG/1.1/DTD/svg11.dtd" >
<svg xmlns="http://www.w3.org/2000/svg">
<metadata></metadata>
<defs>
<font id="roboto_condensedregular" horiz-adv-x="995" >
<font-face units-per-em="2048" ascent="1638" descent="-410" />
<missing-glyph horiz-adv-x="446" />
<glyph horiz-adv-x="0" />
<glyph unicode="&#xd;" horiz-adv-x="446" />
<glyph horiz-adv-x="0" />
<glyph horiz-adv-x="0" />
<glyph horiz-adv-x="16" />
<glyph unicode="&#x9;" horiz-adv-x="16" />
<glyph unicode=" "  horiz-adv-x="446" />
<glyph unicode="&#x09;" horiz-adv-x="446" />
<glyph unicode="&#xa0;" horiz-adv-x="446" />
<glyph unicode="!" horiz-adv-x="474" d="M136 0v204h204v-204h-204zM136 485v971h203v-971h-203z" />
<glyph unicode="&#x22;" horiz-adv-x="589" d="M83 1057l1 245v258h152v-249l-56 -254h-97zM354 1057l1 252v251h152v-249l-57 -254h-96z" />
<glyph unicode="#" horiz-adv-x="1069" d="M57 410v130h217l58 368h-211v132h231l66 416h138l-65 -416h192l66 416h138l-65 -416h179v-132h-200l-57 -368h194v-130h-214l-64 -410h-139l64 410h-192l-64 -410h-139l64 410h-197zM413 540h192l58 368h-193z" />
<glyph unicode="$" horiz-adv-x="1000" d="M93 432h202q0 -158 60.5 -226t149.5 -68q93 0 145.5 64t52.5 168q0 96 -47 158.5t-159 116.5q-179 70 -268 167.5t-89 269.5q0 163 86 267.5t233 123.5v212h131v-214q145 -24 228 -142.5t83 -314.5h-203q0 136 -48.5 219.5t-131.5 83.5q-87 0 -131.5 -65t-44.5 -168 q0 -98 45 -158t164 -117q179 -73 266.5 -169.5t87.5 -267.5q0 -168 -88.5 -269t-242.5 -120v-193h-130v193q-153 17 -252 126t-99 323z" />
<glyph unicode="%" horiz-adv-x="1350" d="M97 1099v77q0 128 72.5 214.5t197.5 86.5q126 0 198.5 -86.5t72.5 -214.5v-77q0 -128 -72 -213.5t-197 -85.5q-126 0 -199 85.5t-73 213.5zM240 1099q0 -74 33.5 -126.5t95.5 -52.5q60 0 93 52t33 127v77q0 75 -33.5 128t-94.5 53t-94 -53t-33 -128v-77zM309 176 l601 1138l104 -63l-601 -1138zM720 279v78q0 127 73 213.5t198 86.5q126 0 198.5 -86t72.5 -214v-78q0 -129 -72.5 -214.5t-196.5 -85.5q-126 0 -199.5 86t-73.5 214zM864 279q0 -74 34.5 -127t94.5 -53q63 0 94.5 51.5t31.5 128.5v78q0 76 -33.5 128t-94.5 52t-94 -52 t-33 -128v-78z" />
<glyph unicode="&#x26;" horiz-adv-x="1172" d="M67 383q0 121 62.5 213.5t185.5 188.5q-68 98 -101 177.5t-33 162.5q0 166 89.5 259t242.5 93q139 0 225 -89.5t86 -218.5q0 -96 -44 -168t-125 -137l-104 -86l293 -393l6 1q31 58 48.5 131.5t17.5 157.5h165q0 -131 -32 -240t-97 -195l179 -240h-237l-77 104 q-75 -61 -158 -93t-175 -32q-191 0 -304 111.5t-113 292.5zM272 388q0 -110 58 -182.5t160 -72.5q62 0 123 23.5t114 68.5l-320 433l-23 -19q-67 -72 -89.5 -134.5t-22.5 -116.5zM373 1127q0 -51 22.5 -105.5t66.5 -120.5l104 82q50 40 68.5 84t18.5 97q0 64 -38 110.5 t-102 46.5q-67 0 -103.5 -55.5t-36.5 -138.5z" />
<glyph unicode="'" horiz-adv-x="319" d="M82 1055l1 266v239h150v-226l-55 -279h-96z" />
<glyph unicode="(" horiz-adv-x="602" d="M117 574v16q0 379 130.5 660.5t283.5 372.5h6l37 -108q-112 -102 -193.5 -344t-81.5 -579v-20q0 -337 81.5 -578t193.5 -349l-37 -102h-6q-154 92 -284 369.5t-130 661.5z" />
<glyph unicode=")" horiz-adv-x="606" d="M25 -355q110 102 192.5 346t82.5 581v20q0 333 -84.5 578.5t-190.5 350.5l38 102h6q154 -91 287.5 -374t133.5 -659v-16q0 -380 -133 -660t-288 -371h-6z" />
<glyph unicode="*" horiz-adv-x="806" d="M32 1080l44 140l268 -119l-11 355h145l-12 -361l262 121l44 -141l-274 -100l179 -278l-118 -87l-162 295l-159 -289l-118 84l181 284z" />
<glyph unicode="+" horiz-adv-x="1023" d="M67 600v174h342v432h198v-432h342v-174h-342v-454h-198v454h-342z" />
<glyph unicode="," horiz-adv-x="397" d="M53 -271l59 302v183h189v-190l-127 -295h-121z" />
<glyph unicode="-" horiz-adv-x="598" d="M73 542v155h446v-155h-446z" />
<glyph unicode="." horiz-adv-x="497" d="M137 0v203h204v-203h-204z" />
<glyph unicode="/" horiz-adv-x="693" d="M9 -125l482 1581h159l-482 -1581h-159z" />
<glyph unicode="0" horiz-adv-x="1002" d="M96 563v329q0 281 109 433t295 152t295.5 -152t109.5 -433v-329q0 -283 -108.5 -433.5t-294.5 -150.5q-187 0 -296.5 151t-109.5 433zM299 535q0 -198 52.5 -300t150.5 -102q97 0 149 101.5t52 300.5v386q0 198 -52.5 299t-150.5 101t-149.5 -101.5t-51.5 -298.5v-386z " />
<glyph unicode="1" horiz-adv-x="1000" d="M143 1234v131l487 92v-1459h-202v1255z" />
<glyph unicode="2" horiz-adv-x="1000" d="M82 1028q-4 189 107 319t304 130q178 0 281.5 -112.5t103.5 -297.5q0 -125 -63.5 -246.5t-184.5 -271.5l-275 -395h563v-154h-817v135l400 526q97 137 135.5 226.5t38.5 173.5q0 115 -48.5 187.5t-133.5 72.5q-107 0 -160.5 -80t-53.5 -218h-195z" />
<glyph unicode="3" horiz-adv-x="1000" d="M79 386l3 6h194q0 -115 57 -187t150 -72q98 0 153.5 69.5t55.5 197.5q0 136 -53 200.5t-160 64.5h-139v153h139q101 0 147.5 67.5t46.5 182.5q0 118 -48.5 185.5t-141.5 67.5q-85 0 -139.5 -67.5t-54.5 -177.5h-193l-3 6q-4 169 106 282t280 113q180 0 288 -107.5 t108 -303.5q0 -97 -51 -185.5t-145 -134.5q110 -41 163 -132.5t53 -211.5q0 -198 -116.5 -310.5t-298.5 -112.5q-170 0 -287.5 107.5t-113.5 299.5z" />
<glyph unicode="4" horiz-adv-x="1000" d="M56 456l529 1000h208v-959h156v-155h-156v-342h-202v342h-529zM256 497h335v665l-6 1l-20 -42z" />
<glyph unicode="5" horiz-adv-x="1000" d="M121 382l2 5l191 4q0 -124 52.5 -191t138.5 -67q99 0 149 87.5t50 242.5q0 146 -52 234.5t-149 88.5q-86 0 -128.5 -37.5t-59.5 -111.5l-175 17l70 802h653v-167h-484l-38 -432q37 38 86 62.5t112 26.5q172 2 270 -127.5t98 -353.5q0 -217 -102.5 -351.5t-299.5 -134.5 q-164 0 -276 104t-108 299z" />
<glyph unicode="6" horiz-adv-x="1000" d="M107 558v316q0 271 135 437t339 166q66 0 127 -17t111 -46l-39 -149q-45 27 -91 41t-107 14q-122 0 -197.5 -117.5t-75.5 -314.5v-41q50 57 118 88.5t149 31.5q165 0 260.5 -136t95.5 -349q0 -220 -110 -361.5t-288 -141.5q-187 0 -307 153t-120 426zM309 546 q0 -196 63 -305t162 -109q90 0 143 101.5t53 248.5q0 148 -54.5 242t-149.5 94q-77 0 -132.5 -37t-84.5 -101v-134z" />
<glyph unicode="7" horiz-adv-x="1000" d="M66 1300v156h850v-156q-209 -278 -286.5 -532.5t-109.5 -628.5l-13 -139h-202l12 139q33 352 131.5 634t270.5 527h-653z" />
<glyph unicode="8" horiz-adv-x="1000" d="M89 392q0 123 63 216.5t171 138.5q-94 42 -148 128.5t-54 200.5q0 191 104 296t274 105q169 0 275 -105t106 -296q0 -115 -55 -201.5t-149 -128.5q107 -45 170.5 -138.5t63.5 -215.5q0 -200 -113.5 -306.5t-295.5 -106.5q-185 0 -298.5 106.5t-113.5 306.5zM292 399 q0 -125 56.5 -195.5t152.5 -70.5q91 0 149 71t58 195q0 120 -59 195.5t-150 75.5q-92 0 -149.5 -75t-57.5 -196zM324 1071q0 -113 48 -180t129 -67q79 0 127 67t48 180q0 110 -49 180t-128 70q-80 0 -127.5 -67.5t-47.5 -182.5z" />
<glyph unicode="9" horiz-adv-x="1000" d="M78 957q0 223 114.5 371.5t283.5 148.5q189 0 303.5 -144t114.5 -415v-380q0 -266 -126 -412.5t-325 -146.5q-62 0 -130 15.5t-126 44.5l27 148q53 -29 107.5 -41.5t121.5 -12.5q111 0 179.5 102.5t68.5 295.5v71q-42 -71 -103 -107.5t-133 -36.5q-174 0 -275.5 134.5 t-101.5 364.5zM281 957q0 -154 51.5 -250.5t143.5 -96.5q78 0 132.5 44.5t82.5 114.5v169q0 188 -56 285.5t-156 97.5q-85 0 -141.5 -105t-56.5 -259z" />
<glyph unicode=":" horiz-adv-x="476" d="M137 0v203h204v-203h-204zM137 878v203h204v-203h-204z" />
<glyph unicode=";" horiz-adv-x="470" d="M91 -271l59 302v183h189v-190l-127 -295h-121zM134 879v203h204v-203h-204z" />
<glyph unicode="&#x3c;" horiz-adv-x="898" d="M61 477v151l711 374v-192l-496 -243l-64 -14v-6l64 -14l496 -240v-192z" />
<glyph unicode="=" horiz-adv-x="1003" d="M130 390v160h732v-160h-732zM130 808v160h732v-160h-732z" />
<glyph unicode="&#x3e;" horiz-adv-x="916" d="M114 101v189l516 247l63 13v6l-63 15l-516 243v188l731 -374v-151z" />
<glyph unicode="?" horiz-adv-x="857" d="M49 1109q-3 173 100.5 270.5t266.5 97.5q177 0 277.5 -105t100.5 -286q0 -130 -60.5 -236t-160.5 -209q-49 -51 -61.5 -97.5t-12.5 -135.5h-203q1 133 28 191t121 151q71 90 108.5 162.5t37.5 170.5q0 110 -45.5 171.5t-129.5 61.5q-70 0 -120 -56.5t-50 -156.5h-195z M295 0v198h208v-198h-208z" />
<glyph unicode="@" horiz-adv-x="1635" d="M89 478q16 425 223 684.5t544 259.5q340 0 520 -245t166 -668q-8 -216 -109.5 -373t-301.5 -157q-69 0 -118 45t-68 127q-43 -86 -104 -128.5t-142 -42.5q-119 0 -182.5 120t-47.5 316q21 255 125 409.5t252 154.5q96 0 154.5 -26.5t128.5 -80.5l-3 -3h5l-46 -577 q-7 -115 17 -157.5t63 -42.5q108 0 172.5 117t72.5 299q15 376 -124.5 586t-433.5 210q-272 0 -438.5 -227t-178.5 -600q-16 -370 132.5 -590.5t425.5 -220.5q77 0 157 21t136 55l32 -107q-59 -42 -150.5 -65.5t-178.5 -23.5q-343 0 -529.5 249.5t-170.5 681.5zM637 416 q-10 -142 18.5 -221.5t92.5 -79.5q56 0 102 31t83 112v14.5t2 20.5l42 536q-24 11 -49 17.5t-51 6.5q-106 0 -164.5 -109t-75.5 -328z" />
<glyph unicode="A" horiz-adv-x="1137" d="M27 0l448 1456h196l444 -1456h-206l-106 368h-464l-106 -368h-206zM386 529h371l-182 636h-6z" />
<glyph unicode="B" horiz-adv-x="1122" d="M141 0v1456h406q206 0 321.5 -98t115.5 -294q0 -104 -52.5 -183.5t-145.5 -116.5q118 -26 181.5 -123.5t63.5 -228.5q0 -201 -113.5 -306.5t-313.5 -105.5h-463zM344 154h260q108 0 166.5 66.5t58.5 190.5q0 123 -50 195.5t-154 72.5h-281v-525zM344 825h223 q100 0 157 60.5t57 174.5q0 120 -59.5 180t-174.5 60h-203v-475z" />
<glyph unicode="C" horiz-adv-x="1084" d="M94 525v404q0 258 126.5 403t337.5 145q214 0 329 -117t118 -342l-3 -6h-192q-3 159 -63 234t-189 75q-125 0 -194 -101t-69 -288v-407q0 -190 70.5 -291t198.5 -101q126 0 184.5 73.5t60.5 235.5h193l3 -6q-1 -218 -116 -337.5t-325 -119.5q-214 0 -342 144t-128 402z " />
<glyph unicode="D" horiz-adv-x="1154" d="M141 0v1456h400q232 0 378.5 -175t146.5 -450v-207q0 -276 -146.5 -450t-378.5 -174h-400zM344 154h190q153 0 241.5 131t88.5 339v209q0 206 -88.5 336.5t-241.5 130.5h-190v-1146z" />
<glyph unicode="E" horiz-adv-x="1018" d="M141 0v1456h823v-156h-620v-469h540v-155h-540v-522h626v-154h-829z" />
<glyph unicode="F" horiz-adv-x="1020" d="M141 0v1456h831v-156h-628v-498h541v-155h-541v-647h-203z" />
<glyph unicode="G" horiz-adv-x="1198" d="M102 514v432q0 253 133 392t353 139q223 0 341 -112.5t126 -315.5l-2 -6h-192q-5 136 -71.5 207t-198.5 71q-133 0 -210 -95.5t-77 -277.5v-434q0 -186 82.5 -283.5t224.5 -97.5q104 0 161.5 35.5t85.5 90.5v331h-249v147h452v-530q-50 -88 -162.5 -158t-287.5 -70 q-229 0 -369 139t-140 396z" />
<glyph unicode="H" horiz-adv-x="1246" d="M141 0v1456h203v-659h558v659h202v-1456h-202v642h-558v-642h-203z" />
<glyph unicode="I" horiz-adv-x="513" d="M155 0v1456h202v-1456h-202z" />
<glyph unicode="J" horiz-adv-x="989" d="M63 402l3 6h195q0 -138 53.5 -206.5t146.5 -68.5q82 0 136 77t54 207v1039h202v-1039q0 -201 -110 -319.5t-282 -118.5q-185 0 -293 107q-105 104 -105 301v15z" />
<glyph unicode="K" horiz-adv-x="1131" d="M141 0v1456h203v-640h121l385 640h242l-458 -691l493 -765h-248l-396 653h-139v-653h-203z" />
<glyph unicode="L" horiz-adv-x="951" d="M141 0v1456h203v-1302h568v-154h-771z" />
<glyph unicode="M" horiz-adv-x="1483" d="M136 0v1456h261l340 -1188h6l341 1188h262v-1456h-201v559l18 560l-6 1l-350 -1120h-134l-349 1119l-6 -1l19 -559v-559h-201z" />
<glyph unicode="N" horiz-adv-x="1247" d="M141 0v1456h203l552 -1080l6 2v1078h202v-1456h-202l-552 1083l-6 -2v-1081h-203z" />
<glyph unicode="O" horiz-adv-x="1160" d="M91 527v400q0 258 131.5 404t352.5 146q224 0 358.5 -146t134.5 -404v-400q0 -259 -134 -403.5t-359 -144.5q-222 0 -353 144.5t-131 403.5zM292 527q0 -192 73.5 -291t209.5 -99q140 0 215.5 98.5t75.5 291.5v403q0 190 -76 288.5t-215 98.5q-137 0 -210 -98.5 t-73 -288.5v-403z" />
<glyph unicode="P" horiz-adv-x="1132" d="M141 0v1456h478q204 0 320 -121.5t116 -319.5q0 -199 -116 -320t-320 -121h-275v-574h-203zM344 730h275q115 0 174 80.5t59 202.5q0 124 -58.5 205.5t-174.5 81.5h-275v-570z" />
<glyph unicode="Q" horiz-adv-x="1212" d="M93 527v400q0 258 131.5 404t352.5 146q224 0 358.5 -146t134.5 -404v-400q0 -129 -35 -231t-99 -172l220 -234l-132 -111l-226 245q-50 -23 -105.5 -34t-115.5 -11q-222 0 -353 144.5t-131 403.5zM294 527q0 -192 73.5 -291t209.5 -99q140 0 215.5 98.5t75.5 291.5v403 q0 190 -76 288.5t-215 98.5q-137 0 -210 -98.5t-73 -288.5v-403z" />
<glyph unicode="R" horiz-adv-x="1162" d="M141 0v1455h453q207 0 320 -107t113 -307q0 -114 -52.5 -199t-151.5 -133q109 -37 157.5 -125.5t48.5 -218.5v-127q0 -67 13.5 -124.5t46.5 -90.5v-23h-209q-34 33 -43.5 99.5t-9.5 140.5v123q0 122 -55.5 193t-152.5 71h-275v-627h-203zM344 782h240q123 0 181.5 66.5 t58.5 188.5q0 125 -57 194t-173 69h-250v-518z" />
<glyph unicode="S" horiz-adv-x="1087" d="M83 420l2 6h195q0 -150 78.5 -222t205.5 -72q114 0 178.5 63.5t64.5 170.5q0 103 -58 169t-203 116q-208 63 -319 164.5t-111 268.5q0 172 123.5 282.5t317.5 110.5q201 1 325 -127q120 -124 120 -297v-11l-2 -6h-195q0 127 -65.5 206.5t-184.5 79.5q-113 0 -174.5 -66.5 t-61.5 -169.5q0 -93 66 -156.5t218 -115.5q199 -62 303 -169t104 -277q0 -179 -123 -284t-323 -105q-194 -1 -340 115q-141 112 -141 312v14z" />
<glyph unicode="T" horiz-adv-x="1018" d="M35 1300v156h949v-156h-374v-1300h-203v1300h-372z" />
<glyph unicode="U" horiz-adv-x="1160" d="M117 447v1009h201v-1009q0 -156 70 -235t189 -79q124 0 195 76t71 238v1009h202v-1009q0 -226 -129.5 -347t-338.5 -121q-206 0 -333 121t-127 347z" />
<glyph unicode="V" horiz-adv-x="1119" d="M24 1456h216l296 -1134l20 -85h6l21 84l297 1135h215l-438 -1456h-196z" />
<glyph unicode="W" horiz-adv-x="1551" d="M41 1456h199l197 -1038h6l248 1038h161l251 -1038h6l196 1038h199l-294 -1456h-187l-247 1034h-6l-249 -1034h-187z" />
<glyph unicode="X" horiz-adv-x="1112" d="M48 0l388 735l-378 721h237l258 -568h6l260 568h239l-379 -721l395 -735h-243l-269 582h-6l-268 -582h-240z" />
<glyph unicode="Y" horiz-adv-x="1100" d="M23 1456h227l297 -707h6l298 707h225l-428 -932v-524h-202v537z" />
<glyph unicode="Z" horiz-adv-x="1010" d="M79 0v125l621 1176h-617v155h836v-121l-624 -1181h644v-154h-860z" />
<glyph unicode="[" horiz-adv-x="503" d="M127 -319v1991h353v-153h-148v-1686h148v-152h-353z" />
<glyph unicode="\" horiz-adv-x="736" d="M25 1456h197l515 -1581h-197z" />
<glyph unicode="]" horiz-adv-x="503" d="M17 -167h150v1686h-150v153h355v-1991h-355v152z" />
<glyph unicode="^" horiz-adv-x="758" d="M53 729l253 727h145l252 -727h-170l-143 444l-10 48h-6l-10 -48l-140 -444h-171z" />
<glyph unicode="_" horiz-adv-x="793" d="M10 0h772v-152h-772v152z" />
<glyph unicode="`" horiz-adv-x="591" d="M80 1472l2 5h227l169 -266h-170z" />
<glyph unicode="a" horiz-adv-x="955" d="M84 297q0 155 105.5 243.5t296.5 88.5h151v111q0 99 -44 154.5t-125 55.5q-73 0 -117.5 -50t-44.5 -125l-193 1l-3 6v11q0 117 100 211q105 98 271 98q160 0 259.5 -94.5t99.5 -269.5v-502q0 -63 7.5 -121.5t24.5 -114.5h-205q-11 37 -18 72.5t-9 71.5q-45 -73 -113 -119 t-151 -46q-137 0 -214.5 86.5t-77.5 231.5zM287 298q0 -73 35 -118t100 -45q71 0 129.5 42t85.5 105v221h-154q-93 0 -144.5 -59.5t-51.5 -145.5z" />
<glyph unicode="b" d="M116 0v1560h203v-592q42 65 102 99.5t139 34.5q171 0 264 -137.5t93 -366.5v-147q0 -215 -93 -343.5t-262 -128.5q-85 0 -148.5 37.5t-106.5 110.5l-15 -127h-176zM319 275q27 -66 75 -102.5t117 -36.5q107 0 155.5 85t48.5 230v147q0 156 -49.5 251t-156.5 95 q-68 0 -115.5 -40.5t-74.5 -108.5v-520z" />
<glyph unicode="c" horiz-adv-x="921" d="M75 465v149q0 212 107.5 350t308.5 138q165 0 267 -110q100 -106 99 -273v-10l-3 -6h-182q0 108 -49.5 175.5t-131.5 67.5q-116 0 -164.5 -94t-48.5 -238v-149q0 -146 48.5 -239t165.5 -93q76 0 128 58.5t52 156.5h182l2 -6v-11q0 -146 -104 -247q-108 -105 -260 -105 q-202 0 -309.5 137t-107.5 349z" />
<glyph unicode="d" d="M78 507v21q0 259 93.5 416.5t263.5 157.5q76 0 135.5 -34t102.5 -98v590h202v-1560h-177l-15 124q-43 -71 -105.5 -108t-143.5 -37q-169 0 -262.5 144t-93.5 384zM281 507q0 -171 49 -271t155 -100q66 0 112.5 36t75.5 101v526q-29 67 -75.5 106t-110.5 39 q-106 0 -156 -115t-50 -301v-21z" />
<glyph unicode="e" horiz-adv-x="930" d="M82 456v158q0 212 113.5 350t288.5 138q184 0 283 -125.5t99 -337.5v-140h-582v-43q0 -140 61.5 -231.5t174.5 -91.5q84 0 144 26.5t114 77.5l64 -126q-51 -58 -137 -95t-198 -37q-193 0 -309 134t-116 343zM284 644h381v41q0 115 -46 188t-135 73q-88 0 -141 -85.5 t-59 -216.5z" />
<glyph unicode="f" horiz-adv-x="623" d="M47 937v145h140v139q0 172 82.5 266t231.5 94q29 0 59.5 -5.5t68.5 -15.5l-20 -149q-17 5 -38 8t-45 3q-67 0 -101.5 -52t-34.5 -149v-139h189v-145h-189v-937h-203v937h-140z" />
<glyph unicode="g" horiz-adv-x="994" d="M78 451v133q0 233 95.5 375.5t265.5 142.5q82 0 144 -38.5t106 -111.5l15 130h175v-1077q0 -208 -110.5 -325t-308.5 -117q-68 0 -145.5 21t-138.5 57l43 152q51 -31 112 -48.5t127 -17.5q111 0 164.5 71t53.5 208v98q-43 -62 -102.5 -93.5t-136.5 -31.5 q-169 0 -264 129.5t-95 342.5zM281 451q0 -144 50 -229.5t157 -85.5q66 0 112.5 34t75.5 96v539q-30 64 -76 101.5t-110 37.5q-106 0 -157.5 -100t-51.5 -260v-133z" />
<glyph unicode="h" d="M113 0v1560h203v-623q45 78 111 121.5t147 43.5q146 0 227 -108t81 -332v-662h-203v664q0 149 -43.5 214.5t-129.5 65.5q-62 0 -110.5 -35.5t-79.5 -97.5v-811h-203z" />
<glyph unicode="i" horiz-adv-x="462" d="M129 0v1082h203v-1082h-203zM129 1366v194h203v-194h-203z" />
<glyph unicode="j" horiz-adv-x="467" d="M-64 -419l11 155q16 -6 36.5 -10t38.5 -4q53 0 84 50.5t31 153.5v1156h203v-1156q0 -174 -78.5 -268.5t-219.5 -94.5q-30 0 -54 4.5t-52 13.5zM137 1366v194h203v-194h-203z" />
<glyph unicode="k" horiz-adv-x="922" d="M117 0v1560h202v-909h83l239 431h237l-314 -488l359 -594h-236l-282 496h-86v-496h-202z" />
<glyph unicode="l" horiz-adv-x="462" d="M129 0v1560h203v-1560h-203z" />
<glyph unicode="m" horiz-adv-x="1525" d="M116 0v1082h185l11 -147q44 80 112 123.5t159 43.5q89 0 153 -49.5t97 -150.5q42 94 112 147t166 53q138 0 217.5 -113.5t79.5 -345.5v-643h-203v644q0 166 -41 233t-121 67q-69 0 -115.5 -52.5t-67.5 -139.5q-1 8 1 -25.5t2 -48.5v-678h-202v644q0 161 -42 230.5 t-122 69.5q-64 0 -109 -35.5t-70 -98.5v-810h-202z" />
<glyph unicode="n" d="M114 0v1082h186l11 -160q45 85 114 132.5t156 47.5q142 0 221 -105t79 -326v-671h-203v669q0 151 -43 213t-130 62q-62 0 -110 -38.5t-78 -104.5v-801h-203z" />
<glyph unicode="o" d="M76 471v138q0 215 112.5 354t308.5 139q195 0 308 -138.5t113 -354.5v-138q0 -217 -112.5 -354.5t-307.5 -137.5q-197 0 -309.5 137.5t-112.5 354.5zM279 471q0 -148 54 -243t165 -95q108 0 162.5 95t54.5 243v138q0 146 -54.5 241.5t-163.5 95.5q-110 0 -164 -95 t-54 -242v-138z" />
<glyph unicode="p" d="M116 -416v1498h181l13 -124q43 69 105 106.5t144 37.5q169 0 263 -142t94 -376v-133q0 -214 -94 -343t-261 -129q-79 0 -139 31t-103 91v-517h-203zM319 259q27 -61 73 -93.5t113 -32.5q105 0 156.5 87.5t51.5 230.5v133q0 159 -52.5 259.5t-156.5 100.5q-65 0 -111 -37 t-74 -101v-547z" />
<glyph unicode="q" d="M78 451v133q0 234 94 376t263 142q79 0 139.5 -36t104.5 -104l15 120h176v-1498h-203v513q-43 -58 -101 -88t-132 -30q-169 0 -262.5 129t-93.5 343zM281 451q0 -144 49 -231t155 -87q63 0 108 32t74 91v561q-28 60 -73 94.5t-107 34.5q-106 0 -156 -100.5t-50 -261.5 v-133z" />
<glyph unicode="r" horiz-adv-x="633" d="M116 0v1082h185l15 -163q34 86 89 134.5t127 48.5q20 0 41 -3.5t33 -8.5l-24 -179l-95 5q-63 0 -104.5 -38t-63.5 -107v-771h-203z" />
<glyph unicode="s" horiz-adv-x="891" d="M69 318l2 6h189q4 -105 58 -151.5t134 -46.5q79 0 123.5 40.5t44.5 104.5q0 63 -41.5 106.5t-156.5 95.5q-167 65 -247.5 138.5t-80.5 190.5q0 125 98.5 212.5t258.5 87.5q167 0 266 -94q95 -91 95 -225v-11l-2 -6h-195q0 77 -43.5 132.5t-120.5 55.5q-76 0 -118.5 -43 t-42.5 -101q0 -62 36.5 -98t157.5 -94q170 -61 252.5 -138.5t82.5 -198.5q0 -134 -102 -218t-268 -84q-179 -1 -282 101q-98 97 -98 225v13z" />
<glyph unicode="t" horiz-adv-x="628" d="M32 937v145h141v269h202v-269h169v-145h-169v-644q0 -84 25 -119.5t65 -35.5q24 0 44.5 3t48.5 9l21 -140q-34 -14 -76.5 -22.5t-87.5 -8.5q-115 0 -178.5 75.5t-63.5 238.5v644h-141z" />
<glyph unicode="u" d="M112 443v639h202v-641q0 -166 39.5 -235.5t118.5 -69.5q75 0 125.5 35t80.5 100v811h203v-1082h-181l-13 145q-43 -80 -110 -123t-154 -43q-147 0 -229 113t-82 351z" />
<glyph unicode="v" horiz-adv-x="892" d="M34 1082h210l186 -757l17 -84h6l17 84l184 757h209l-324 -1082h-179z" />
<glyph unicode="w" horiz-adv-x="1308" d="M41 1082h194l146 -725h6l192 725h146l195 -731h6l143 731h194l-248 -1082h-167l-194 719h-6l-191 -719h-168z" />
<glyph unicode="x" horiz-adv-x="892" d="M35 0l296 548l-287 534h230l166 -395h6l170 395h232l-287 -534l297 -548h-231l-177 408h-6l-178 -408h-231z" />
<glyph unicode="y" horiz-adv-x="892" d="M22 1082h220l178 -709l15 -71h6l208 780h221l-379 -1250q-38 -112 -103 -190.5t-187 -78.5q-25 0 -53.5 5.5t-56.5 12.5l22 150q11 -2 30 -4t30 -2q59 0 93.5 50.5t53.5 119.5l36 110z" />
<glyph unicode="z" horiz-adv-x="865" d="M76 0v128l474 797h-464v157h690v-126l-478 -802h499v-154h-721z" />
<glyph unicode="{" horiz-adv-x="594" d="M55 535v146q83 0 123.5 61.5t40.5 174.5v215q0 171 69.5 290.5t233.5 174.5l39 -114q-83 -36 -117.5 -126.5t-34.5 -224.5v-215q0 -106 -40 -186.5t-121 -122.5q81 -44 121 -125t40 -186v-212q0 -134 34.5 -223t118.5 -126l-40 -115q-164 55 -233.5 174.5t-69.5 289.5 v212q0 112 -40.5 175t-123.5 63z" />
<glyph unicode="|" horiz-adv-x="446" d="M155 -270v1726h137v-1726h-137z" />
<glyph unicode="}" horiz-adv-x="594" d="M30 -264q83 37 119 126.5t36 222.5v212q0 108 41 188.5t126 121.5q-85 40 -126 120.5t-41 189.5v215q0 133 -35.5 223.5t-118.5 127.5l40 114q163 -55 233 -174.5t70 -290.5v-215q0 -113 39.5 -174.5t124.5 -61.5v-146q-84 0 -124 -63t-40 -175v-212q0 -170 -70 -289.5 t-233 -174.5z" />
<glyph unicode="~" horiz-adv-x="1165" d="M108 466q0 141 72 239t185 98q72 0 135.5 -35.5t132.5 -105.5q44 -52 80.5 -75t77.5 -23q50 0 86.5 58t36.5 143l143 -20q0 -142 -74 -242.5t-185 -100.5q-73 0 -134.5 34t-131.5 108q-47 50 -83.5 74t-77.5 24q-51 0 -86 -56t-35 -140z" />
<glyph unicode="&#xa2;" horiz-adv-x="991" d="M97 465v149q0 186 84 317.5t244 162.5v224h163v-223q134 -25 215 -130.5t81 -261.5h-190q0 108 -49.5 175.5t-131.5 67.5q-116 0 -164.5 -94t-48.5 -238v-149q0 -146 48.5 -239t165.5 -93q76 0 128 58.5t52 156.5h183l3 -5q2 -133 -81.5 -232.5t-210.5 -124.5v-231h-163 v232q-160 30 -244 161t-84 317z" />
<glyph unicode="&#xa3;" horiz-adv-x="1034" d="M77 618v155h135l-8 263q0 205 98 323t263 118q175 0 270.5 -107t92.5 -282l-3 -6h-195q0 123 -46 181t-119 58t-115.5 -75t-42.5 -210l9 -263h328v-155h-322l5 -141q0 -93 -24 -177.5t-69 -145.5h629v-154h-832v154h7q42 13 63 113t21 206l-5 145h-140z" />
<glyph unicode="&#xa5;" horiz-adv-x="1070" d="M31 1456h226l273 -632h6l272 632h226l-350 -730h247v-155h-300v-137h300v-155h-300v-279h-203v279h-304v155h304v137h-304v155h256z" />
<glyph unicode="&#xa8;" horiz-adv-x="940" d="M151 1271v185h208v-185h-208zM580 1271v185h207v-185h-207z" />
<glyph unicode="&#xa9;" horiz-adv-x="1440" d="M88 729q0 315 182.5 531t444.5 216q261 0 444.5 -216t183.5 -531q0 -316 -184 -533t-444 -217q-261 0 -444 217t-183 533zM190 729q0 -271 153.5 -457t371.5 -186t371.5 186t153.5 457q0 268 -153.5 453t-371.5 185q-219 0 -372 -185t-153 -453zM397 669v119 q0 173 83 280t224 107q137 0 214.5 -79.5t74.5 -228.5l-3 -6h-121q0 102 -42 150t-123 48q-86 0 -132.5 -75t-46.5 -195v-120q0 -123 46.5 -197.5t132.5 -74.5q82 0 123 47t41 152h121l3 -6q3 -150 -74 -229t-214 -79q-141 0 -224 106.5t-83 280.5z" />
<glyph unicode="&#xab;" horiz-adv-x="857" d="M81 507v19l243 384h139l-210 -394l210 -394h-139zM387 507v19l243 384h139l-210 -394l210 -394h-139z" />
<glyph unicode="&#xad;" horiz-adv-x="598" d="M73 542v155h446v-155h-446z" />
<glyph unicode="&#xae;" horiz-adv-x="1441" d="M87 729q0 315 183 531t445 216q261 0 444 -216t183 -531q0 -316 -183.5 -533t-443.5 -217q-262 0 -445 217t-183 533zM189 729q0 -271 153.5 -457t372.5 -186q217 0 370.5 186t153.5 457q0 268 -153.5 453t-370.5 185q-219 0 -372.5 -185t-153.5 -453zM459 316v850h245 q133 0 209 -65.5t76 -189.5q0 -63 -29.5 -109.5t-85.5 -77.5q58 -27 84.5 -80.5t26.5 -128.5v-56q0 -42 3 -74t11 -53v-16h-129q-8 21 -9.5 61.5t-1.5 82.5v54q0 76 -30.5 111t-99.5 35h-144v-344h-126zM585 776h131q62 0 105 35t43 97q0 77 -36 110t-124 33h-119v-275z" />
<glyph unicode="&#xb4;" horiz-adv-x="615" d="M112 1212l172 266h226l2 -5l-238 -261h-162z" />
<glyph unicode="&#xb8;" horiz-adv-x="464" d="M100 -132l26 134h150l-10 -58q56 -10 92.5 -50.5t36.5 -121.5q0 -98 -72.5 -156t-205.5 -58l-6 113q53 0 85.5 25t32.5 76q0 50 -29 69.5t-100 26.5z" />
<glyph unicode="&#xbb;" horiz-adv-x="857" d="M85 155l209 395l-209 396h139l243 -386v-19l-243 -386h-139zM402 155l209 395l-209 396h139l243 -386v-19l-243 -386h-139z" />
<glyph unicode="&#xc0;" horiz-adv-x="1137" d="M27 0l448 1456h196l444 -1456h-206l-106 368h-464l-106 -368h-206zM291 1822l2 5h227l169 -266h-170zM386 529h371l-182 636h-6z" />
<glyph unicode="&#xc2;" horiz-adv-x="1137" d="M27 0l448 1456h196l444 -1456h-206l-106 368h-464l-106 -368h-206zM305 1599v23l222 232h122l226 -233v-22h-164l-123 151l-122 -151h-161zM386 529h371l-182 636h-6z" />
<glyph unicode="&#xc6;" horiz-adv-x="1639" d="M3 0l703 1456h832v-157h-544l17 -467h458v-155h-453l18 -522h556v-155h-752l-13 361h-416l-164 -361h-242zM487 531h332l-24 665l-5 1z" />
<glyph unicode="&#xc7;" horiz-adv-x="1084" d="M94 525v404q0 258 126.5 403t337.5 145q214 0 329 -117t118 -342l-3 -6h-192q-3 159 -63 234t-189 75q-125 0 -194 -101t-69 -288v-407q0 -190 70.5 -291t198.5 -101q126 0 184.5 73.5t60.5 235.5h193l3 -6q-1 -218 -116 -337.5t-325 -119.5q-214 0 -342 144t-128 402z M459 -137l26 134h150l-10 -58q56 -10 92.5 -50.5t36.5 -121.5q0 -98 -72.5 -156t-205.5 -58l-6 113q53 0 85.5 25t32.5 76q0 50 -29 69.5t-100 26.5z" />
<glyph unicode="&#xc8;" horiz-adv-x="1018" d="M141 0v1456h823v-156h-620v-469h540v-155h-540v-522h626v-154h-829zM231 1822l2 5h227l169 -266h-170z" />
<glyph unicode="&#xc9;" horiz-adv-x="1018" d="M141 0v1456h823v-156h-620v-469h540v-155h-540v-522h626v-154h-829zM426 1558l172 266h226l2 -5l-238 -261h-162z" />
<glyph unicode="&#xca;" horiz-adv-x="1018" d="M141 0v1456h823v-156h-620v-469h540v-155h-540v-522h626v-154h-829zM245 1599v23l222 232h122l226 -233v-22h-164l-123 151l-122 -151h-161z" />
<glyph unicode="&#xcb;" horiz-adv-x="1018" d="M141 0v1456h823v-156h-620v-469h540v-155h-540v-522h626v-154h-829zM211 1617v185h208v-185h-208zM640 1617v185h207v-185h-207z" />
<glyph unicode="&#xce;" horiz-adv-x="513" d="M-25 1599v23l222 232h122l226 -233v-22h-164l-123 151l-122 -151h-161zM155 0v1456h202v-1456h-202z" />
<glyph unicode="&#xcf;" horiz-adv-x="513" d="M-59 1617v185h208v-185h-208zM155 0v1456h202v-1456h-202zM370 1617v185h207v-185h-207z" />
<glyph unicode="&#xd4;" horiz-adv-x="1160" d="M91 527v400q0 258 131.5 404t352.5 146q224 0 358.5 -146t134.5 -404v-400q0 -259 -134 -403.5t-359 -144.5q-222 0 -353 144.5t-131 403.5zM292 527q0 -192 73.5 -291t209.5 -99q140 0 215.5 98.5t75.5 291.5v403q0 190 -76 288.5t-215 98.5q-137 0 -210 -98.5 t-73 -288.5v-403zM296 1620v23l222 232h122l226 -233v-22h-164l-123 151l-122 -151h-161z" />
<glyph unicode="&#xd9;" horiz-adv-x="1160" d="M117 447v1009h201v-1009q0 -156 70 -235t189 -79q124 0 195 76t71 238v1009h202v-1009q0 -226 -129.5 -347t-338.5 -121q-206 0 -333 121t-127 347zM284 1822l2 5h227l169 -266h-170z" />
<glyph unicode="&#xdb;" horiz-adv-x="1160" d="M117 447v1009h201v-1009q0 -156 70 -235t189 -79q124 0 195 76t71 238v1009h202v-1009q0 -226 -129.5 -347t-338.5 -121q-206 0 -333 121t-127 347zM298 1599v23l222 232h122l226 -233v-22h-164l-123 151l-122 -151h-161z" />
<glyph unicode="&#xdc;" horiz-adv-x="1160" d="M117 447v1009h201v-1009q0 -156 70 -235t189 -79q124 0 195 76t71 238v1009h202v-1009q0 -226 -129.5 -347t-338.5 -121q-206 0 -333 121t-127 347zM264 1617v185h208v-185h-208zM693 1617v185h207v-185h-207z" />
<glyph unicode="&#xe0;" horiz-adv-x="955" d="M84 297q0 155 105.5 243.5t296.5 88.5h151v111q0 99 -44 154.5t-125 55.5q-73 0 -117.5 -50t-44.5 -125l-193 1l-3 6q-5 125 100 222.5t271 97.5q160 0 259.5 -94.5t99.5 -269.5v-502q0 -63 7.5 -121.5t24.5 -114.5h-205q-11 37 -18 72.5t-9 71.5q-45 -73 -113 -119 t-151 -46q-137 0 -214.5 86.5t-77.5 231.5zM174 1500l2 5h227l169 -266h-170zM287 298q0 -73 35 -118t100 -45q71 0 129.5 42t85.5 105v221h-154q-93 0 -144.5 -59.5t-51.5 -145.5z" />
<glyph unicode="&#xe2;" horiz-adv-x="955" d="M84 297q0 155 105.5 243.5t296.5 88.5h151v111q0 99 -44 154.5t-125 55.5q-73 0 -117.5 -50t-44.5 -125l-193 1l-3 6q-5 125 100 222.5t271 97.5q160 0 259.5 -94.5t99.5 -269.5v-502q0 -63 7.5 -121.5t24.5 -114.5h-205q-11 37 -18 72.5t-9 71.5q-45 -73 -113 -119 t-151 -46q-137 0 -214.5 86.5t-77.5 231.5zM188 1277v23l222 232h122l226 -233v-22h-164l-123 151l-122 -151h-161zM287 298q0 -73 35 -118t100 -45q71 0 129.5 42t85.5 105v221h-154q-93 0 -144.5 -59.5t-51.5 -145.5z" />
<glyph unicode="&#xe6;" horiz-adv-x="1479" d="M53 304q0 158 102.5 246t297.5 88h176v78q0 109 -40 169.5t-114 60.5q-80 0 -126.5 -54.5t-46.5 -134.5l-194 16l-2 6q-5 139 97.5 231t272.5 92q92 0 164.5 -33.5t119.5 -97.5q53 63 124.5 97t156.5 34q179 0 278.5 -128.5t99.5 -350.5v-124h-583q1 -166 61 -266 t185 -100q83 0 139 26.5t119 76.5l59 -132q-47 -48 -133 -86.5t-198 -38.5t-198.5 45t-142.5 129q-49 -75 -139 -124.5t-215 -49.5q-153 0 -236.5 87t-83.5 238zM256 300q0 -80 39 -126.5t118 -46.5q57 0 119.5 40t96.5 92v242h-174q-94 0 -146.5 -58.5t-52.5 -142.5z M839 639h380v30q0 124 -44 200.5t-134 76.5q-91 0 -141.5 -84t-60.5 -223z" />
<glyph unicode="&#xe7;" horiz-adv-x="921" d="M75 465v149q0 212 107.5 350t308.5 138q164 0 266.5 -109.5t99.5 -283.5l-3 -6h-182q0 108 -49.5 175.5t-131.5 67.5q-116 0 -164.5 -94t-48.5 -238v-149q0 -146 48.5 -239t165.5 -93q76 0 128 58.5t52 156.5h182l2 -6q4 -153 -103.5 -258t-260.5 -105q-202 0 -309.5 137 t-107.5 349zM372 -137l26 134h150l-10 -58q56 -10 92.5 -50.5t36.5 -121.5q0 -98 -72.5 -156t-205.5 -58l-6 113q53 0 85.5 25t32.5 76q0 50 -29 69.5t-100 26.5z" />
<glyph unicode="&#xe8;" horiz-adv-x="930" d="M82 456v158q0 212 113.5 350t288.5 138q184 0 283 -125.5t99 -337.5v-140h-582v-43q0 -140 61.5 -231.5t174.5 -91.5q84 0 144 26.5t114 77.5l64 -126q-51 -58 -137 -95t-198 -37q-193 0 -309 134t-116 343zM177 1501l2 5h227l169 -266h-170zM284 644h381v41 q0 115 -46 188t-135 73q-88 0 -141 -85.5t-59 -216.5z" />
<glyph unicode="&#xe9;" horiz-adv-x="930" d="M82 456v158q0 212 113.5 350t288.5 138q184 0 283 -125.5t99 -337.5v-140h-582v-43q0 -140 61.5 -231.5t174.5 -91.5q84 0 144 26.5t114 77.5l64 -126q-51 -58 -137 -95t-198 -37q-193 0 -309 134t-116 343zM284 644h381v41q0 115 -46 188t-135 73q-88 0 -141 -85.5 t-59 -216.5zM372 1237l172 266h226l2 -5l-238 -261h-162z" />
<glyph unicode="&#xea;" horiz-adv-x="930" d="M82 456v158q0 212 113.5 350t288.5 138q184 0 283 -125.5t99 -337.5v-140h-582v-43q0 -140 61.5 -231.5t174.5 -91.5q84 0 144 26.5t114 77.5l64 -126q-51 -58 -137 -95t-198 -37q-193 0 -309 134t-116 343zM191 1278v23l222 232h122l226 -233v-22h-164l-123 151 l-122 -151h-161zM284 644h381v41q0 115 -46 188t-135 73q-88 0 -141 -85.5t-59 -216.5z" />
<glyph unicode="&#xeb;" horiz-adv-x="930" d="M82 456v158q0 212 113.5 350t288.5 138q184 0 283 -125.5t99 -337.5v-140h-582v-43q0 -140 61.5 -231.5t174.5 -91.5q84 0 144 26.5t114 77.5l64 -126q-51 -58 -137 -95t-198 -37q-193 0 -309 134t-116 343zM157 1296v185h208v-185h-208zM284 644h381v41q0 115 -46 188 t-135 73q-88 0 -141 -85.5t-59 -216.5zM586 1296v185h207v-185h-207z" />
<glyph unicode="&#xee;" horiz-adv-x="468" d="M-50 1256v23l222 232h122l226 -233v-22h-164l-123 151l-122 -151h-161zM129 0v1082h203v-1082h-203z" />
<glyph unicode="&#xef;" horiz-adv-x="468" d="M-84 1274v185h208v-185h-208zM129 0v1082h203v-1082h-203zM345 1274v185h207v-185h-207z" />
<glyph unicode="&#xf4;" d="M76 471v138q0 215 112.5 354t308.5 139q195 0 308 -138.5t113 -354.5v-138q0 -217 -112.5 -354.5t-307.5 -137.5q-197 0 -309.5 137.5t-112.5 354.5zM215 1277v23l222 232h122l226 -233v-22h-164l-123 151l-122 -151h-161zM279 471q0 -148 54 -243t165 -95 q108 0 162.5 95t54.5 243v138q0 146 -54.5 241.5t-163.5 95.5q-110 0 -164 -95t-54 -242v-138z" />
<glyph unicode="&#xf9;" d="M112 443v639h202v-641q0 -166 39.5 -235.5t118.5 -69.5q75 0 125.5 35t80.5 100v811h203v-1082h-181l-13 145q-43 -80 -110 -123t-154 -43q-147 0 -229 113t-82 351zM199 1479l2 5h227l169 -266h-170z" />
<glyph unicode="&#xfb;" d="M112 443v639h202v-641q0 -166 39.5 -235.5t118.5 -69.5q75 0 125.5 35t80.5 100v811h203v-1082h-181l-13 145q-43 -80 -110 -123t-154 -43q-147 0 -229 113t-82 351zM213 1256v23l222 232h122l226 -233v-22h-164l-123 151l-122 -151h-161z" />
<glyph unicode="&#xfc;" d="M112 443v639h202v-641q0 -166 39.5 -235.5t118.5 -69.5q75 0 125.5 35t80.5 100v811h203v-1082h-181l-13 145q-43 -80 -110 -123t-154 -43q-147 0 -229 113t-82 351zM179 1274v185h208v-185h-208zM608 1274v185h207v-185h-207z" />
<glyph unicode="&#xff;" horiz-adv-x="892" d="M22 1082h220l178 -709l15 -71h6l208 780h221l-379 -1250q-38 -112 -103 -190.5t-187 -78.5q-25 0 -53.5 5.5t-56.5 12.5l22 150q11 -2 30 -4t30 -2q59 0 93.5 50.5t53.5 119.5l36 110zM130 1274v185h208v-185h-208zM559 1274v185h207v-185h-207z" />
<glyph unicode="&#x152;" horiz-adv-x="1681" d="M93 576v304q0 265 136 431t356 166q58 0 118.5 -6t128.5 -15h759v-156h-620v-469h540v-155h-540v-522h626v-154h-765q-78 -10 -133.5 -15.5t-112.5 -5.5q-219 0 -356 166t-137 431zM296 576q0 -210 77.5 -326t212.5 -116q46 0 92 3.5t90 10.5v1160q-45 6 -90.5 10 t-92.5 4q-135 0 -212 -115.5t-77 -324.5v-306z" />
<glyph unicode="&#x153;" horiz-adv-x="1584" d="M84 526v27q0 241 112 395t307 154q104 0 186.5 -46.5t138.5 -130.5q54 84 132.5 130.5t172.5 46.5q184 0 283 -129.5t99 -347.5v-126h-581q2 -161 62.5 -263.5t172.5 -102.5q85 0 144.5 26.5t114.5 77.5l64 -126q-51 -58 -137 -95t-199 -37q-104 0 -188 45.5t-140 129.5 q-55 -84 -137 -129.5t-186 -45.5q-197 0 -309 152.5t-112 394.5zM286 526q0 -172 54.5 -282.5t164.5 -110.5q108 0 162.5 110.5t54.5 282.5v27q0 170 -54.5 281.5t-164.5 111.5q-109 0 -163 -112t-54 -281v-27zM938 644h377v28q0 120 -46.5 197t-135.5 77q-80 0 -131.5 -84 t-63.5 -218z" />
<glyph unicode="&#x178;" horiz-adv-x="1100" d="M23 1456h227l297 -707h6l298 707h225l-428 -932v-524h-202v537zM235 1613v185h208v-185h-208zM664 1613v185h207v-185h-207z" />
<glyph unicode="&#x2c6;" horiz-adv-x="853" d="M137 1252v23l222 232h122l226 -233v-22h-164l-123 151l-122 -151h-161z" />
<glyph unicode="&#x2da;" horiz-adv-x="622" d="M129 1311q0 78 53 131t128 53q74 0 126 -53t52 -131q0 -80 -51.5 -130.5t-126.5 -50.5q-76 0 -128.5 51t-52.5 130zM222 1311q0 -41 25.5 -68.5t62.5 -27.5q36 0 60 27t24 69q0 43 -24 71t-60 28q-37 0 -62.5 -28.5t-25.5 -70.5z" />
<glyph unicode="&#x2dc;" horiz-adv-x="841" d="M112 1276q0 90 50 155t126 65q48 0 124 -49.5t120 -49.5q33 0 56.5 34t23.5 84l110 -31q0 -92 -50 -155t-126 -63q-61 0 -131 49t-113 49q-33 0 -56 -33.5t-23 -82.5z" />
<glyph unicode="&#x2000;" horiz-adv-x="937" />
<glyph unicode="&#x2001;" horiz-adv-x="1875" />
<glyph unicode="&#x2002;" horiz-adv-x="937" />
<glyph unicode="&#x2003;" horiz-adv-x="1875" />
<glyph unicode="&#x2004;" horiz-adv-x="625" />
<glyph unicode="&#x2005;" horiz-adv-x="468" />
<glyph unicode="&#x2006;" horiz-adv-x="312" />
<glyph unicode="&#x2007;" horiz-adv-x="312" />
<glyph unicode="&#x2008;" horiz-adv-x="234" />
<glyph unicode="&#x2009;" horiz-adv-x="375" />
<glyph unicode="&#x200a;" horiz-adv-x="104" />
<glyph unicode="&#x2010;" horiz-adv-x="598" d="M73 542v155h446v-155h-446z" />
<glyph unicode="&#x2011;" horiz-adv-x="598" d="M73 542v155h446v-155h-446z" />
<glyph unicode="&#x2012;" horiz-adv-x="598" d="M73 542v155h446v-155h-446z" />
<glyph unicode="&#x2013;" horiz-adv-x="1213" d="M150 649v155h918v-155h-918z" />
<glyph unicode="&#x2014;" horiz-adv-x="1425" d="M128 649v155h1130v-155h-1130z" />
<glyph unicode="&#x2018;" horiz-adv-x="360" d="M63 1040v182l133 338h100l-51 -339v-181h-182z" />
<glyph unicode="&#x2019;" horiz-adv-x="360" d="M67 1041l50 329v190h183v-188l-133 -331h-100z" />
<glyph unicode="&#x201a;" horiz-adv-x="358" d="M63 -239l50 265v239h183v-225l-126 -279h-107z" />
<glyph unicode="&#x201c;" horiz-adv-x="635" d="M63 1040v182l133 338h100l-51 -339v-181h-182zM337 1040v182l133 338h100l-51 -339v-181h-182z" />
<glyph unicode="&#x201d;" horiz-adv-x="642" d="M66 1041l50 329v190h183v-188l-133 -331h-100zM345 1041l50 329v190h183v-188l-133 -331h-100z" />
<glyph unicode="&#x201e;" horiz-adv-x="623" d="M63 -219l50 294v208h176v-199l-132 -303h-94zM333 -219l50 300v202h176v-199l-132 -303h-94z" />
<glyph unicode="&#x2026;" horiz-adv-x="1240" d="M142 0v203h204v-203h-204zM528 0v203h204v-203h-204zM900 0v203h204v-203h-204z" />
<glyph unicode="&#x202f;" horiz-adv-x="375" />
<glyph unicode="&#x2039;" horiz-adv-x="547" d="M99 541v19l243 384h139l-210 -394l210 -394h-139z" />
<glyph unicode="&#x203a;" horiz-adv-x="538" d="M80 155l209 395l-209 396h139l243 -386v-19l-243 -386h-139z" />
<glyph unicode="&#x205f;" horiz-adv-x="468" />
<glyph unicode="&#x20ac;" horiz-adv-x="948" d="M71 491v155h126v141h-126v155h126v23q0 223 123 367.5t323 144.5q50 0 99 -8t106 -23l-17 -160q-45 16 -92.5 25.5t-95.5 9.5q-113 0 -178 -100.5t-65 -253.5v-25h391v-155h-391v-141h391v-155h-391v-9q0 -150 66 -249.5t178 -99.5q49 0 96 8.5t91 25.5l17 -157 q-48 -15 -100 -23t-104 -8q-200 0 -323.5 142t-123.5 361v9h-126z" />
<glyph unicode="&#x2122;" horiz-adv-x="1104" d="M92 1371v85h331v-85h-117v-453h-99v453h-115zM485 917v539h116l118 -392h6l119 392h110v-539h-92v318l-6 1l-108 -319h-52l-112 331h-6v-331h-93z" />
<glyph unicode="&#xe000;" horiz-adv-x="1080" d="M0 0v1080h1080v-1080h-1080z" />
<hkern u1="&#x22;" u2="w" k="-11" />
<hkern u1="&#x27;" u2="w" k="-11" />
<hkern u1="&#x28;" u2="&#x178;" k="-22" />
<hkern u1="&#x28;" u2="Y" k="-22" />
<hkern u1="&#x28;" u2="W" k="-18" />
<hkern u1="&#x28;" u2="V" k="-20" />
<hkern u1="&#x2f;" u2="&#x2f;" k="224" />
<hkern u1="A" u2="w" k="33" />
<hkern u1="A" u2="t" k="17" />
<hkern u1="A" u2="&#x3f;" k="61" />
<hkern u1="C" u2="&#x7d;" k="17" />
<hkern u1="C" u2="]" k="12" />
<hkern u1="C" u2="&#x29;" k="26" />
<hkern u1="D" u2="&#xc6;" k="33" />
<hkern u1="E" u2="w" k="22" />
<hkern u1="E" u2="f" k="18" />
<hkern u1="F" u2="&#x2026;" k="234" />
<hkern u1="F" u2="&#x201e;" k="234" />
<hkern u1="F" u2="&#x201a;" k="234" />
<hkern u1="F" u2="&#x153;" k="21" />
<hkern u1="F" u2="&#xff;" k="24" />
<hkern u1="F" u2="&#xfc;" k="22" />
<hkern u1="F" u2="&#xfb;" k="22" />
<hkern u1="F" u2="&#xf9;" k="22" />
<hkern u1="F" u2="&#xf4;" k="21" />
<hkern u1="F" u2="&#xeb;" k="21" />
<hkern u1="F" u2="&#xea;" k="21" />
<hkern u1="F" u2="&#xe9;" k="21" />
<hkern u1="F" u2="&#xe8;" k="21" />
<hkern u1="F" u2="&#xe7;" k="21" />
<hkern u1="F" u2="&#xe2;" k="34" />
<hkern u1="F" u2="&#xe0;" k="34" />
<hkern u1="F" u2="&#xc2;" k="59" />
<hkern u1="F" u2="&#xc0;" k="59" />
<hkern u1="F" u2="y" k="24" />
<hkern u1="F" u2="v" k="24" />
<hkern u1="F" u2="u" k="22" />
<hkern u1="F" u2="r" k="26" />
<hkern u1="F" u2="q" k="21" />
<hkern u1="F" u2="o" k="21" />
<hkern u1="F" u2="g" k="21" />
<hkern u1="F" u2="e" k="21" />
<hkern u1="F" u2="d" k="21" />
<hkern u1="F" u2="c" k="21" />
<hkern u1="F" u2="a" k="34" />
<hkern u1="F" u2="T" k="-20" />
<hkern u1="F" u2="J" k="264" />
<hkern u1="F" u2="A" k="59" />
<hkern u1="F" u2="&#x2e;" k="234" />
<hkern u1="F" u2="&#x2c;" k="234" />
<hkern u1="K" u2="w" k="63" />
<hkern u1="L" u2="w" k="92" />
<hkern u1="O" u2="&#xc6;" k="33" />
<hkern u1="P" u2="&#xc6;" k="97" />
<hkern u1="P" u2="t" k="-14" />
<hkern u1="Q" u2="&#x178;" k="35" />
<hkern u1="Q" u2="Y" k="35" />
<hkern u1="Q" u2="W" k="20" />
<hkern u1="Q" u2="V" k="28" />
<hkern u1="Q" u2="T" k="43" />
<hkern u1="R" u2="&#x178;" k="48" />
<hkern u1="R" u2="Y" k="48" />
<hkern u1="R" u2="V" k="19" />
<hkern u1="R" u2="T" k="80" />
<hkern u1="T" u2="&#xe6;" k="114" />
<hkern u1="T" u2="&#xc6;" k="179" />
<hkern u1="T" u2="&#xbb;" k="216" />
<hkern u1="T" u2="&#xab;" k="328" />
<hkern u1="T" u2="w" k="57" />
<hkern u1="T" u2="r" k="75" />
<hkern u1="V" u2="&#x7d;" k="-19" />
<hkern u1="V" u2="r" k="30" />
<hkern u1="V" u2="]" k="-17" />
<hkern u1="V" u2="&#x29;" k="-20" />
<hkern u1="W" u2="&#x7d;" k="-14" />
<hkern u1="W" u2="r" k="21" />
<hkern u1="W" u2="]" k="-12" />
<hkern u1="W" u2="&#x29;" k="-15" />
<hkern u1="Y" u2="&#xe6;" k="63" />
<hkern u1="Y" u2="&#xc6;" k="96" />
<hkern u1="Y" u2="&#xbb;" k="51" />
<hkern u1="Y" u2="&#xab;" k="82" />
<hkern u1="Y" u2="&#x7d;" k="-19" />
<hkern u1="Y" u2="t" k="22" />
<hkern u1="Y" u2="r" k="40" />
<hkern u1="Y" u2="f" k="22" />
<hkern u1="Y" u2="]" k="-18" />
<hkern u1="Y" u2="&#x2a;" k="49" />
<hkern u1="Y" u2="&#x29;" k="-20" />
<hkern u1="Y" u2="&#x26;" k="30" />
<hkern u1="Z" u2="w" k="27" />
<hkern u1="[" u2="&#xdc;" k="18" />
<hkern u1="[" u2="&#xdb;" k="18" />
<hkern u1="[" u2="&#xd9;" k="18" />
<hkern u1="[" u2="U" k="18" />
<hkern u1="[" u2="J" k="18" />
<hkern u1="f" u2="&#x201d;" k="-16" />
<hkern u1="f" u2="&#x201c;" k="-16" />
<hkern u1="f" u2="&#x2019;" k="-16" />
<hkern u1="f" u2="&#x2018;" k="-16" />
<hkern u1="f" u2="&#x153;" k="24" />
<hkern u1="f" u2="&#xeb;" k="24" />
<hkern u1="f" u2="&#xea;" k="24" />
<hkern u1="f" u2="&#xe9;" k="24" />
<hkern u1="f" u2="&#xe8;" k="24" />
<hkern u1="f" u2="&#xe7;" k="24" />
<hkern u1="f" u2="&#x7d;" k="-19" />
<hkern u1="f" u2="q" k="24" />
<hkern u1="f" u2="g" k="24" />
<hkern u1="f" u2="e" k="24" />
<hkern u1="f" u2="d" k="24" />
<hkern u1="f" u2="c" k="24" />
<hkern u1="f" u2="]" k="-18" />
<hkern u1="f" u2="&#x29;" k="-20" />
<hkern u1="f" u2="&#x27;" k="-16" />
<hkern u1="f" u2="&#x22;" k="-16" />
<hkern u1="k" u2="&#x153;" k="20" />
<hkern u1="k" u2="&#xeb;" k="20" />
<hkern u1="k" u2="&#xea;" k="20" />
<hkern u1="k" u2="&#xe9;" k="20" />
<hkern u1="k" u2="&#xe8;" k="20" />
<hkern u1="k" u2="&#xe7;" k="20" />
<hkern u1="k" u2="q" k="20" />
<hkern u1="k" u2="g" k="20" />
<hkern u1="k" u2="e" k="20" />
<hkern u1="k" u2="d" k="20" />
<hkern u1="k" u2="c" k="20" />
<hkern u1="r" u2="w" k="-17" />
<hkern u1="r" u2="t" k="-32" />
<hkern u1="r" u2="f" k="-15" />
<hkern u1="t" u2="&#xf4;" k="20" />
<hkern u1="t" u2="o" k="20" />
<hkern u1="v" u2="f" k="-13" />
<hkern u1="w" u2="&#x2026;" k="124" />
<hkern u1="w" u2="&#x201e;" k="124" />
<hkern u1="w" u2="&#x201a;" k="124" />
<hkern u1="w" u2="&#x2e;" k="124" />
<hkern u1="w" u2="&#x2c;" k="124" />
<hkern u1="y" u2="f" k="-13" />
<hkern u1="&#x7b;" u2="&#xdc;" k="20" />
<hkern u1="&#x7b;" u2="&#xdb;" k="20" />
<hkern u1="&#x7b;" u2="&#xd9;" k="20" />
<hkern u1="&#x7b;" u2="U" k="20" />
<hkern u1="&#x7b;" u2="J" k="20" />
<hkern u1="&#xc0;" u2="w" k="33" />
<hkern u1="&#xc0;" u2="t" k="17" />
<hkern u1="&#xc0;" u2="&#x3f;" k="61" />
<hkern u1="&#xc2;" u2="w" k="33" />
<hkern u1="&#xc2;" u2="t" k="17" />
<hkern u1="&#xc2;" u2="&#x3f;" k="61" />
<hkern u1="&#xc7;" u2="&#x7d;" k="17" />
<hkern u1="&#xc7;" u2="]" k="12" />
<hkern u1="&#xc7;" u2="&#x29;" k="26" />
<hkern u1="&#xc8;" u2="w" k="22" />
<hkern u1="&#xc8;" u2="f" k="18" />
<hkern u1="&#xc9;" u2="w" k="22" />
<hkern u1="&#xc9;" u2="f" k="18" />
<hkern u1="&#xca;" u2="w" k="22" />
<hkern u1="&#xca;" u2="f" k="18" />
<hkern u1="&#xcb;" u2="w" k="22" />
<hkern u1="&#xcb;" u2="f" k="18" />
<hkern u1="&#xd4;" u2="&#xc6;" k="33" />
<hkern u1="&#xff;" u2="f" k="-13" />
<hkern u1="&#x178;" u2="&#xe6;" k="63" />
<hkern u1="&#x178;" u2="&#xc6;" k="96" />
<hkern u1="&#x178;" u2="&#xbb;" k="51" />
<hkern u1="&#x178;" u2="&#xab;" k="82" />
<hkern u1="&#x178;" u2="&#x7d;" k="-19" />
<hkern u1="&#x178;" u2="t" k="22" />
<hkern u1="&#x178;" u2="r" k="40" />
<hkern u1="&#x178;" u2="f" k="22" />
<hkern u1="&#x178;" u2="]" k="-18" />
<hkern u1="&#x178;" u2="&#x2a;" k="49" />
<hkern u1="&#x178;" u2="&#x29;" k="-20" />
<hkern u1="&#x178;" u2="&#x26;" k="30" />
<hkern u1="&#x2018;" u2="w" k="-11" />
<hkern u1="&#x2019;" u2="w" k="-11" />
<hkern u1="&#x201c;" u2="w" k="-11" />
<hkern u1="&#x201d;" u2="w" k="-11" />
<hkern g1="comma,period,quotesinglbase,quotedblbase,ellipsis" 	g2="quotedbl,quotesingle,quoteleft,quoteright,quotedblleft,quotedblright" 	k="170" />
<hkern g1="A,Agrave,Acircumflex" 	g2="quotedbl,quotesingle,quoteleft,quoteright,quotedblleft,quotedblright" 	k="120" />
<hkern g1="A,Agrave,Acircumflex" 	g2="o,ocircumflex" 	k="12" />
<hkern g1="A,Agrave,Acircumflex" 	g2="C,G,O,Q,Ccedilla,Ocircumflex,OE" 	k="11" />
<hkern g1="A,Agrave,Acircumflex" 	g2="T" 	k="129" />
<hkern g1="A,Agrave,Acircumflex" 	g2="U,Ugrave,Ucircumflex,Udieresis" 	k="17" />
<hkern g1="A,Agrave,Acircumflex" 	g2="V" 	k="87" />
<hkern g1="A,Agrave,Acircumflex" 	g2="W" 	k="69" />
<hkern g1="A,Agrave,Acircumflex" 	g2="Y,Ydieresis" 	k="94" />
<hkern g1="A,Agrave,Acircumflex" 	g2="u,ugrave,ucircumflex,udieresis" 	k="11" />
<hkern g1="A,Agrave,Acircumflex" 	g2="v,y,ydieresis" 	k="50" />
<hkern g1="A,Agrave,Acircumflex" 	g2="z" 	k="-12" />
<hkern g1="B" 	g2="T" 	k="27" />
<hkern g1="B" 	g2="V" 	k="24" />
<hkern g1="B" 	g2="Y,Ydieresis" 	k="55" />
<hkern g1="C,Ccedilla" 	g2="T" 	k="29" />
<hkern g1="D,O,Ocircumflex" 	g2="A,Agrave,Acircumflex" 	k="21" />
<hkern g1="D,O,Ocircumflex" 	g2="T" 	k="27" />
<hkern g1="D,O,Ocircumflex" 	g2="V" 	k="22" />
<hkern g1="D,O,Ocircumflex" 	g2="Y,Ydieresis" 	k="43" />
<hkern g1="D,O,Ocircumflex" 	g2="comma,period,quotesinglbase,quotedblbase,ellipsis" 	k="102" />
<hkern g1="D,O,Ocircumflex" 	g2="X" 	k="22" />
<hkern g1="D,O,Ocircumflex" 	g2="Z" 	k="23" />
<hkern g1="E,Egrave,Eacute,Ecircumflex,Edieresis" 	g2="c,d,e,g,q,ccedilla,egrave,eacute,ecircumflex,edieresis,oe" 	k="19" />
<hkern g1="E,Egrave,Eacute,Ecircumflex,Edieresis" 	g2="o,ocircumflex" 	k="19" />
<hkern g1="E,Egrave,Eacute,Ecircumflex,Edieresis" 	g2="T" 	k="-20" />
<hkern g1="E,Egrave,Eacute,Ecircumflex,Edieresis" 	g2="u,ugrave,ucircumflex,udieresis" 	k="17" />
<hkern g1="E,Egrave,Eacute,Ecircumflex,Edieresis" 	g2="v,y,ydieresis" 	k="26" />
<hkern g1="H,I,M,N,Icircumflex,Idieresis" 	g2="A,Agrave,Acircumflex" 	k="-18" />
<hkern g1="H,I,M,N,Icircumflex,Idieresis" 	g2="T" 	k="29" />
<hkern g1="H,I,M,N,Icircumflex,Idieresis" 	g2="Y,Ydieresis" 	k="28" />
<hkern g1="H,I,M,N,Icircumflex,Idieresis" 	g2="X" 	k="-17" />
<hkern g1="J,U,Ugrave,Ucircumflex,Udieresis" 	g2="A,Agrave,Acircumflex" 	k="22" />
<hkern g1="K" 	g2="c,d,e,g,q,ccedilla,egrave,eacute,ecircumflex,edieresis,oe" 	k="26" />
<hkern g1="K" 	g2="m,n,p" 	k="23" />
<hkern g1="K" 	g2="o,ocircumflex" 	k="27" />
<hkern g1="K" 	g2="C,G,O,Q,Ccedilla,Ocircumflex,OE" 	k="31" />
<hkern g1="K" 	g2="u,ugrave,ucircumflex,udieresis" 	k="23" />
<hkern g1="K" 	g2="v,y,ydieresis" 	k="40" />
<hkern g1="K" 	g2="hyphen,endash,emdash" 	k="64" />
<hkern g1="L" 	g2="quotedbl,quotesingle,quoteleft,quoteright,quotedblleft,quotedblright" 	k="138" />
<hkern g1="L" 	g2="A,Agrave,Acircumflex" 	k="-19" />
<hkern g1="L" 	g2="C,G,O,Q,Ccedilla,Ocircumflex,OE" 	k="65" />
<hkern g1="L" 	g2="T" 	k="275" />
<hkern g1="L" 	g2="U,Ugrave,Ucircumflex,Udieresis" 	k="54" />
<hkern g1="L" 	g2="V" 	k="175" />
<hkern g1="L" 	g2="W" 	k="143" />
<hkern g1="L" 	g2="Y,Ydieresis" 	k="239" />
<hkern g1="L" 	g2="u,ugrave,ucircumflex,udieresis" 	k="44" />
<hkern g1="L" 	g2="v,y,ydieresis" 	k="133" />
<hkern g1="P" 	g2="A,Agrave,Acircumflex" 	k="138" />
<hkern g1="P" 	g2="a,agrave,acircumflex" 	k="11" />
<hkern g1="P" 	g2="c,d,e,g,q,ccedilla,egrave,eacute,ecircumflex,edieresis,oe" 	k="13" />
<hkern g1="P" 	g2="o,ocircumflex" 	k="13" />
<hkern g1="P" 	g2="v,y,ydieresis" 	k="-15" />
<hkern g1="P" 	g2="comma,period,quotesinglbase,quotedblbase,ellipsis" 	k="324" />
<hkern g1="P" 	g2="X" 	k="31" />
<hkern g1="P" 	g2="Z" 	k="26" />
<hkern g1="P" 	g2="J" 	k="200" />
<hkern g1="T" 	g2="A,Agrave,Acircumflex" 	k="79" />
<hkern g1="T" 	g2="a,agrave,acircumflex" 	k="113" />
<hkern g1="T" 	g2="c,d,e,g,q,ccedilla,egrave,eacute,ecircumflex,edieresis,oe" 	k="99" />
<hkern g1="T" 	g2="m,n,p" 	k="109" />
<hkern g1="T" 	g2="o,ocircumflex" 	k="99" />
<hkern g1="T" 	g2="s" 	k="116" />
<hkern g1="T" 	g2="C,G,O,Q,Ccedilla,Ocircumflex,OE" 	k="28" />
<hkern g1="T" 	g2="T" 	k="-16" />
<hkern g1="T" 	g2="V" 	k="-16" />
<hkern g1="T" 	g2="W" 	k="-15" />
<hkern g1="T" 	g2="Y,Ydieresis" 	k="-16" />
<hkern g1="T" 	g2="u,ugrave,ucircumflex,udieresis" 	k="95" />
<hkern g1="T" 	g2="v,y,ydieresis" 	k="72" />
<hkern g1="T" 	g2="z" 	k="60" />
<hkern g1="T" 	g2="comma,period,quotesinglbase,quotedblbase,ellipsis" 	k="218" />
<hkern g1="T" 	g2="hyphen,endash,emdash" 	k="232" />
<hkern g1="T" 	g2="J" 	k="240" />
<hkern g1="T" 	g2="S" 	k="16" />
<hkern g1="T" 	g2="x" 	k="77" />
<hkern g1="V" 	g2="A,Agrave,Acircumflex" 	k="75" />
<hkern g1="V" 	g2="a,agrave,acircumflex" 	k="46" />
<hkern g1="V" 	g2="c,d,e,g,q,ccedilla,egrave,eacute,ecircumflex,edieresis,oe" 	k="44" />
<hkern g1="V" 	g2="o,ocircumflex" 	k="46" />
<hkern g1="V" 	g2="C,G,O,Q,Ccedilla,Ocircumflex,OE" 	k="13" />
<hkern g1="V" 	g2="u,ugrave,ucircumflex,udieresis" 	k="28" />
<hkern g1="V" 	g2="v,y,ydieresis" 	k="11" />
<hkern g1="V" 	g2="comma,period,quotesinglbase,quotedblbase,ellipsis" 	k="225" />
<hkern g1="V" 	g2="hyphen,endash,emdash" 	k="37" />
<hkern g1="W" 	g2="A,Agrave,Acircumflex" 	k="43" />
<hkern g1="W" 	g2="a,agrave,acircumflex" 	k="33" />
<hkern g1="W" 	g2="c,d,e,g,q,ccedilla,egrave,eacute,ecircumflex,edieresis,oe" 	k="31" />
<hkern g1="W" 	g2="o,ocircumflex" 	k="31" />
<hkern g1="W" 	g2="T" 	k="-14" />
<hkern g1="W" 	g2="u,ugrave,ucircumflex,udieresis" 	k="19" />
<hkern g1="W" 	g2="comma,period,quotesinglbase,quotedblbase,ellipsis" 	k="123" />
<hkern g1="W" 	g2="hyphen,endash,emdash" 	k="60" />
<hkern g1="X" 	g2="c,d,e,g,q,ccedilla,egrave,eacute,ecircumflex,edieresis,oe" 	k="26" />
<hkern g1="X" 	g2="o,ocircumflex" 	k="21" />
<hkern g1="X" 	g2="C,G,O,Q,Ccedilla,Ocircumflex,OE" 	k="25" />
<hkern g1="X" 	g2="V" 	k="-14" />
<hkern g1="X" 	g2="u,ugrave,ucircumflex,udieresis" 	k="21" />
<hkern g1="X" 	g2="v,y,ydieresis" 	k="31" />
<hkern g1="X" 	g2="hyphen,endash,emdash" 	k="46" />
<hkern g1="Y,Ydieresis" 	g2="A,Agrave,Acircumflex" 	k="94" />
<hkern g1="Y,Ydieresis" 	g2="a,agrave,acircumflex" 	k="73" />
<hkern g1="Y,Ydieresis" 	g2="c,d,e,g,q,ccedilla,egrave,eacute,ecircumflex,edieresis,oe" 	k="65" />
<hkern g1="Y,Ydieresis" 	g2="m,n,p" 	k="40" />
<hkern g1="Y,Ydieresis" 	g2="o,ocircumflex" 	k="65" />
<hkern g1="Y,Ydieresis" 	g2="s" 	k="58" />
<hkern g1="Y,Ydieresis" 	g2="C,G,O,Q,Ccedilla,Ocircumflex,OE" 	k="29" />
<hkern g1="Y,Ydieresis" 	g2="T" 	k="-17" />
<hkern g1="Y,Ydieresis" 	g2="U,Ugrave,Ucircumflex,Udieresis" 	k="96" />
<hkern g1="Y,Ydieresis" 	g2="V" 	k="-18" />
<hkern g1="Y,Ydieresis" 	g2="W" 	k="-17" />
<hkern g1="Y,Ydieresis" 	g2="Y,Ydieresis" 	k="-18" />
<hkern g1="Y,Ydieresis" 	g2="u,ugrave,ucircumflex,udieresis" 	k="39" />
<hkern g1="Y,Ydieresis" 	g2="v,y,ydieresis" 	k="20" />
<hkern g1="Y,Ydieresis" 	g2="z" 	k="30" />
<hkern g1="Y,Ydieresis" 	g2="comma,period,quotesinglbase,quotedblbase,ellipsis" 	k="211" />
<hkern g1="Y,Ydieresis" 	g2="X" 	k="-13" />
<hkern g1="Y,Ydieresis" 	g2="hyphen,endash,emdash" 	k="52" />
<hkern g1="Y,Ydieresis" 	g2="J" 	k="96" />
<hkern g1="Y,Ydieresis" 	g2="S" 	k="16" />
<hkern g1="Y,Ydieresis" 	g2="x" 	k="23" />
<hkern g1="Z" 	g2="A,Agrave,Acircumflex" 	k="-13" />
<hkern g1="Z" 	g2="c,d,e,g,q,ccedilla,egrave,eacute,ecircumflex,edieresis,oe" 	k="21" />
<hkern g1="Z" 	g2="o,ocircumflex" 	k="21" />
<hkern g1="Z" 	g2="C,G,O,Q,Ccedilla,Ocircumflex,OE" 	k="26" />
<hkern g1="Z" 	g2="u,ugrave,ucircumflex,udieresis" 	k="19" />
<hkern g1="Z" 	g2="v,y,ydieresis" 	k="27" />
<hkern g1="a,agrave,acircumflex" 	g2="quotedbl,quotesingle,quoteleft,quoteright,quotedblleft,quotedblright" 	k="67" />
<hkern g1="a,agrave,acircumflex" 	g2="v,y,ydieresis" 	k="15" />
<hkern g1="b,p" 	g2="quotedbl,quotesingle,quoteleft,quoteright,quotedblleft,quotedblright" 	k="29" />
<hkern g1="b,p" 	g2="v,y,ydieresis" 	k="11" />
<hkern g1="b,p" 	g2="z" 	k="15" />
<hkern g1="b,p" 	g2="x" 	k="15" />
<hkern g1="c,ccedilla" 	g2="quotedbl,quotesingle,quoteleft,quoteright,quotedblleft,quotedblright" 	k="11" />
<hkern g1="e,egrave,eacute,ecircumflex,edieresis" 	g2="quotedbl,quotesingle,quoteleft,quoteright,quotedblleft,quotedblright" 	k="14" />
<hkern g1="e,egrave,eacute,ecircumflex,edieresis" 	g2="v,y,ydieresis" 	k="13" />
<hkern g1="h,m,n" 	g2="quotedbl,quotesingle,quoteleft,quoteright,quotedblleft,quotedblright" 	k="16" />
<hkern g1="o,ocircumflex" 	g2="quotedbl,quotesingle,quoteleft,quoteright,quotedblleft,quotedblright" 	k="20" />
<hkern g1="o,ocircumflex" 	g2="v,y,ydieresis" 	k="15" />
<hkern g1="o,ocircumflex" 	g2="z" 	k="16" />
<hkern g1="o,ocircumflex" 	g2="x" 	k="21" />
<hkern g1="r" 	g2="quotedbl,quotesingle,quoteleft,quoteright,quotedblleft,quotedblright" 	k="-16" />
<hkern g1="r" 	g2="c,d,e,g,q,ccedilla,egrave,eacute,ecircumflex,edieresis,oe" 	k="19" />
<hkern g1="r" 	g2="o,ocircumflex" 	k="20" />
<hkern g1="r" 	g2="v,y,ydieresis" 	k="-18" />
<hkern g1="r" 	g2="comma,period,quotesinglbase,quotedblbase,ellipsis" 	k="123" />
<hkern g1="v,y,ydieresis" 	g2="quotedbl,quotesingle,quoteleft,quoteright,quotedblleft,quotedblright" 	k="-15" />
<hkern g1="v,y,ydieresis" 	g2="a,agrave,acircumflex" 	k="15" />
<hkern g1="v,y,ydieresis" 	g2="c,d,e,g,q,ccedilla,egrave,eacute,ecircumflex,edieresis,oe" 	k="13" />
<hkern g1="v,y,ydieresis" 	g2="o,ocircumflex" 	k="15" />
<hkern g1="v,y,ydieresis" 	g2="comma,period,quotesinglbase,quotedblbase,ellipsis" 	k="107" />
<hkern g1="x" 	g2="c,d,e,g,q,ccedilla,egrave,eacute,ecircumflex,edieresis,oe" 	k="20" />
<hkern g1="x" 	g2="o,ocircumflex" 	k="20" />
<hkern g1="z" 	g2="c,d,e,g,q,ccedilla,egrave,eacute,ecircumflex,edieresis,oe" 	k="16" />
<hkern g1="z" 	g2="o,ocircumflex" 	k="16" />
</font>
</defs></svg> 